\relax 
\@writefile{toc}{\contentsline {section}{\numberline {1}Co to jest organizacja i jakie g\IeC {\l }\IeC {\'o}wne zbiory element\IeC {\'o}w mo\IeC {\.z}na w niej wyr\IeC {\'o}\IeC {\.z}ni\IeC {\'c}?}{1}\protected@file@percent }
\@writefile{toc}{\contentsline {section}{\numberline {2}Dlaczego organizcje mo\IeC {\.z}emy uzna\IeC {\'c} za system otwarty i adaptuj\IeC {\k a}cy si\IeC {\k e}?}{1}\protected@file@percent }
\@writefile{toc}{\contentsline {section}{\numberline {3}Dlaczego struktura organizacyjna zajmuje centralne miejsce w czterocz\IeC {\l }onowym modelu organizacji?}{1}\protected@file@percent }
\@writefile{toc}{\contentsline {section}{\numberline {4}Scharakteryzuj poj\IeC {\k e}cia \IeC {\quotedblbase }cel\IeC {\textquotedblright }, \IeC {\quotedblbase }zadania\IeC {\textquotedblright } i \IeC {\quotedblbase }misja organizacji\IeC {\textquotedblright }.}{1}\protected@file@percent }
\@writefile{toc}{\contentsline {section}{\numberline {5}Zdefiniuj poj\IeC {\k e}cie \IeC {\quotedblbase }efektywno\IeC {\'s}\IeC {\'c}\IeC {\textquotedblright } i okre\IeC {\'s}l jej rol\IeC {\k e} w organizacji.}{1}\protected@file@percent }
